rtl/simulation/qsim/Tetris.msim.vcd
$comment
	File created using the following command:
		vcd file Tetris.msim.vcd -direction
$end
$date
	Mon Jun 11 17:06:43 2018
$end
$version
	ModelSim Version 10.5b
$end
$timescale
	1ps
$end

$scope module create_piece_vhd_vec_tst $end
$var wire 1 ! clock $end
$var wire 1 " en $end
$var wire 1 # piece [2] $end
$var wire 1 $ piece [1] $end
$var wire 1 % piece [0] $end
$var wire 1 & sync_reset $end

$scope module i1 $end
$var wire 1 ' gnd $end
$var wire 1 ( vcc $end
$var wire 1 ) unknown $end
$var wire 1 * devoe $end
$var wire 1 + devclrn $end
$var wire 1 , devpor $end
$var wire 1 - ww_devoe $end
$var wire 1 . ww_devclrn $end
$var wire 1 / ww_devpor $end
$var wire 1 0 ww_clock $end
$var wire 1 1 ww_sync_reset $end
$var wire 1 2 ww_en $end
$var wire 1 3 ww_piece [2] $end
$var wire 1 4 ww_piece [1] $end
$var wire 1 5 ww_piece [0] $end
$var wire 1 6 \piece[0]~output_o\ $end
$var wire 1 7 \piece[1]~output_o\ $end
$var wire 1 8 \piece[2]~output_o\ $end
$var wire 1 9 \clock~input_o\ $end
$var wire 1 : \en~input_o\ $end
$var wire 1 ; \sync_reset~input_o\ $end
$var wire 1 < \r_lfsr~3_combout\ $end
$var wire 1 = \r_lfsr[2]~2_combout\ $end
$var wire 1 > \r_lfsr~1_combout\ $end
$var wire 1 ? \r_lfsr~0_combout\ $end
$var wire 1 @ \piece[0]$latch~combout\ $end
$var wire 1 A \aux[1]~0_combout\ $end
$var wire 1 B \piece[1]$latch~combout\ $end
$var wire 1 C \piece[2]$latch~combout\ $end
$var wire 1 D r_lfsr [3] $end
$var wire 1 E r_lfsr [2] $end
$var wire 1 F r_lfsr [1] $end
$var wire 1 G \ALT_INV_sync_reset~input_o\ $end
$var wire 1 H \ALT_INV_en~input_o\ $end
$var wire 1 I \ALT_INV_piece[2]$latch~combout\ $end
$var wire 1 J \ALT_INV_piece[1]$latch~combout\ $end
$var wire 1 K \ALT_INV_piece[0]$latch~combout\ $end
$var wire 1 L \ALT_INV_aux[1]~0_combout\ $end
$var wire 1 M ALT_INV_r_lfsr [3] $end
$var wire 1 N ALT_INV_r_lfsr [2] $end
$var wire 1 O ALT_INV_r_lfsr [1] $end
$upscope $end
$upscope $end
$enddefinitions $end
#0
$dumpvars
0!
1"
1&
0'
1(
x)
1*
1+
1,
1-
1.
1/
00
11
12
06
17
08
09
1:
1;
0<
1=
0>
1?
0@
1A
1B
0C
0G
0H
1I
0J
1K
0L
03
14
05
0D
0E
0F
1M
1N
1O
0#
1$
0%
$end
#10000
1!
10
19
1F
0O
1@
0A
1L
0K
0B
1J
16
15
1%
07
04
0$
#20000
0!
00
09
#30000
1!
10
19
#40000
0!
00
09
#50000
1!
10
19
#60000
0!
00
09
#70000
1!
10
19
#80000
0!
00
09
#90000
1!
10
19
#100000
0!
00
09
#110000
1!
10
19
#120000
0!
0&
00
01
0;
09
1G
1<
0?
#130000
1!
10
19
1D
0F
1O
0M
1>
1C
0<
0@
1K
0I
06
18
05
13
0%
1#
#140000
0!
00
09
#150000
1!
10
19
0D
1E
0N
1M
0>
0C
1<
1?
1A
0L
1I
1B
0J
08
03
0#
17
14
1$
#160000
0!
00
09
#170000
1!
10
19
1D
0E
1F
0O
1N
0M
1>
1C
0?
1@
0A
1L
0K
0I
0B
1J
16
18
15
13
1%
1#
07
04
0$
#180000
0!
00
09
#190000
1!
10
19
1E
0F
1O
0N
1?
0@
1A
0L
1K
1B
0J
06
05
0%
17
14
1$
#200000
0!
00
09
#210000
1!
10
19
1F
0O
0<
1@
0K
16
15
1%
#220000
0!
00
09
#230000
1!
10
19
0D
1M
0>
0C
1I
08
03
0#
#240000
0!
00
09
#250000
1!
10
19
0E
1N
1<
0?
0A
1L
0B
1J
07
04
0$
#260000
0!
00
09
#270000
1!
10
19
1D
0F
1O
0M
1>
1C
0<
0@
1K
0I
06
18
05
13
0%
1#
#280000
0!
00
09
#290000
1!
10
19
0D
1E
0N
1M
0>
0C
1<
1?
1A
0L
1I
1B
0J
08
03
0#
17
14
1$
#300000
0!
00
09
#310000
1!
10
19
1D
0E
1F
0O
1N
0M
1>
1C
0?
1@
0A
1L
0K
0I
0B
1J
16
18
15
13
1%
1#
07
04
0$
#320000
0!
00
09
#330000
1!
10
19
1E
0F
1O
0N
1?
0@
1A
0L
1K
1B
0J
06
05
0%
17
14
1$
#340000
0!
00
09
#350000
1!
10
19
1F
0O
0<
1@
0K
16
15
1%
#360000
0!
00
09
#370000
1!
10
19
0D
1M
0>
0C
1I
08
03
0#
#380000
0!
00
09
#390000
1!
10
19
0E
1N
1<
0?
0A
1L
0B
1J
07
04
0$
#400000
0!
00
09
#410000
1!
10
19
1D
0F
1O
0M
1>
1C
0<
0@
1K
0I
06
18
05
13
0%
1#
#420000
0!
00
09
#430000
1!
10
19
0D
1E
0N
1M
0>
0C
1<
1?
1A
0L
1I
1B
0J
08
03
0#
17
14
1$
#440000
0!
00
09
#450000
1!
10
19
1D
0E
1F
0O
1N
0M
1>
1C
0?
1@
0A
1L
0K
0I
0B
1J
16
18
15
13
1%
1#
07
04
0$
#460000
0!
00
09
#470000
1!
10
19
1E
0F
1O
0N
1?
0@
1A
0L
1K
1B
0J
06
05
0%
17
14
1$
#480000
0!
00
09
#490000
1!
10
19
1F
0O
0<
1@
0K
16
15
1%
#500000
0!
00
09
#510000
1!
10
19
0D
1M
0>
0C
1I
08
03
0#
#520000
0!
00
09
#530000
1!
10
19
0E
1N
1<
0?
0A
1L
0B
1J
07
04
0$
#540000
0!
00
09
#550000
1!
10
19
1D
0F
1O
0M
1>
1C
0<
0@
1K
0I
06
18
05
13
0%
1#
#560000
0!
00
09
#570000
1!
10
19
0D
1E
0N
1M
0>
0C
1<
1?
1A
0L
1I
1B
0J
08
03
0#
17
14
1$
#580000
0!
00
09
#590000
1!
10
19
1D
0E
1F
0O
1N
0M
1>
1C
0?
1@
0A
1L
0K
0I
0B
1J
16
18
15
13
1%
1#
07
04
0$
#600000
0!
00
09
#610000
1!
10
19
1E
0F
1O
0N
1?
0@
1A
0L
1K
1B
0J
06
05
0%
17
14
1$
#620000
0!
00
09
#630000
1!
10
19
1F
0O
0<
1@
0K
16
15
1%
#640000
0!
00
09
#650000
1!
10
19
0D
1M
0>
0C
1I
08
03
0#
#660000
0!
00
09
#670000
1!
10
19
0E
1N
1<
0?
0A
1L
0B
1J
07
04
0$
#680000
0!
00
09
#690000
1!
10
19
1D
0F
1O
0M
1>
1C
0<
0@
1K
0I
06
18
05
13
0%
1#
#700000
0!
00
09
#710000
1!
10
19
0D
1E
0N
1M
0>
0C
1<
1?
1A
0L
1I
1B
0J
08
03
0#
17
14
1$
#720000
0!
00
09
#730000
1!
10
19
1D
0E
1F
0O
1N
0M
1>
1C
0?
1@
0A
1L
0K
0I
0B
1J
16
18
15
13
1%
1#
07
04
0$
#740000
0!
00
09
#750000
1!
10
19
1E
0F
1O
0N
1?
0@
1A
0L
1K
1B
0J
06
05
0%
17
14
1$
#760000
0!
00
09
#770000
1!
10
19
1F
0O
0<
1@
0K
16
15
1%
#780000
0!
00
09
#790000
1!
10
19
0D
1M
0>
0C
1I
08
03
0#
#800000
0!
00
09
#810000
1!
10
19
0E
1N
1<
0?
0A
1L
0B
1J
07
04
0$
#820000
0!
00
09
#830000
1!
10
19
1D
0F
1O
0M
1>
1C
0<
0@
1K
0I
06
18
05
13
0%
1#
#840000
0!
00
09
#850000
1!
10
19
0D
1E
0N
1M
0>
0C
1<
1?
1A
0L
1I
1B
0J
08
03
0#
17
14
1$
#860000
0!
00
09
#870000
1!
10
19
1D
0E
1F
0O
1N
0M
1>
1C
0?
1@
0A
1L
0K
0I
0B
1J
16
18
15
13
1%
1#
07
04
0$
#880000
0!
00
09
#890000
1!
10
19
1E
0F
1O
0N
1?
0@
1A
0L
1K
1B
0J
06
05
0%
17
14
1$
#900000
0!
00
09
#910000
1!
10
19
1F
0O
0<
1@
0K
16
15
1%
#920000
0!
00
09
#930000
1!
10
19
0D
1M
0>
0C
1I
08
03
0#
#940000
0!
00
09
#950000
1!
10
19
0E
1N
1<
0?
0A
1L
0B
1J
07
04
0$
#960000
0!
00
09
#970000
1!
10
19
1D
0F
1O
0M
1>
1C
0<
0@
1K
0I
06
18
05
13
0%
1#
#980000
0!
00
09
#990000
1!
10
19
0D
1E
0N
1M
0>
0C
1<
1?
1A
0L
1I
1B
0J
08
03
0#
17
14
1$
