rtl/simulation/qsim/Tetris.msim.vcd
$comment
	File created using the following command:
		vcd file Tetris.msim.vcd -direction
$end
$date
	Wed Jun  6 15:07:55 2018
$end
$version
	ModelSim Version 10.5b
$end
$timescale
	1ps
$end

$scope module create_piece_vhd_vec_tst $end
$var wire 1 ! clock $end
$var wire 1 " en $end
$var wire 1 # piece [2] $end
$var wire 1 $ piece [1] $end
$var wire 1 % piece [0] $end
$var wire 1 & sync_reset $end

$scope module i1 $end
$var wire 1 ' gnd $end
$var wire 1 ( vcc $end
$var wire 1 ) unknown $end
$var wire 1 * devoe $end
$var wire 1 + devclrn $end
$var wire 1 , devpor $end
$var wire 1 - ww_devoe $end
$var wire 1 . ww_devclrn $end
$var wire 1 / ww_devpor $end
$var wire 1 0 ww_clock $end
$var wire 1 1 ww_sync_reset $end
$var wire 1 2 ww_en $end
$var wire 1 3 ww_piece [2] $end
$var wire 1 4 ww_piece [1] $end
$var wire 1 5 ww_piece [0] $end
$var wire 1 6 \piece[0]~output_o\ $end
$var wire 1 7 \piece[1]~output_o\ $end
$var wire 1 8 \piece[2]~output_o\ $end
$var wire 1 9 \clock~input_o\ $end
$var wire 1 : \sync_reset~input_o\ $end
$var wire 1 ; \r_lfsr~3_combout\ $end
$var wire 1 < \en~input_o\ $end
$var wire 1 = \r_lfsr[2]~2_combout\ $end
$var wire 1 > \r_lfsr~1_combout\ $end
$var wire 1 ? \r_lfsr~0_combout\ $end
$var wire 1 @ r_lfsr [3] $end
$var wire 1 A r_lfsr [2] $end
$var wire 1 B r_lfsr [1] $end
$var wire 1 C ALT_INV_r_lfsr [3] $end
$var wire 1 D ALT_INV_r_lfsr [2] $end
$var wire 1 E ALT_INV_r_lfsr [1] $end
$var wire 1 F \ALT_INV_en~input_o\ $end
$var wire 1 G \ALT_INV_sync_reset~input_o\ $end
$upscope $end
$upscope $end
$enddefinitions $end
#0
$dumpvars
0!
0"
1&
0'
1(
x)
1*
1+
1,
1-
1.
1/
00
11
02
06
07
08
09
1:
0;
0<
1=
0>
1?
1F
0G
03
04
05
0@
0A
0B
1C
1D
1E
0#
0$
0%
$end
#20000
1!
10
19
1B
0E
16
15
1%
#40000
0!
00
09
#60000
1!
0&
10
01
0:
19
1G
1;
0=
#80000
0!
00
09
#100000
1!
10
19
#120000
0!
00
09
#140000
1!
10
19
#160000
0!
00
09
#180000
1!
1"
10
12
1<
19
0F
1=
0?
#200000
0!
00
09
#220000
1!
10
19
1@
0B
1E
0C
1>
0;
06
18
05
13
0%
1#
#240000
0!
00
09
#260000
1!
10
19
0@
1A
0D
1C
0>
1;
1?
17
08
14
03
1$
0#
#280000
0!
00
09
#300000
1!
10
19
1@
0A
1B
0E
1D
0C
1>
0?
16
07
18
15
04
13
1%
0$
1#
#320000
0!
00
09
#340000
1!
10
19
1A
0B
1E
0D
1?
06
17
05
14
0%
1$
#360000
0!
00
09
#380000
1!
10
19
1B
0E
0;
16
15
1%
#400000
0!
00
09
#420000
1!
10
19
0@
1C
0>
08
03
0#
#440000
0!
00
09
#460000
1!
10
19
0A
1D
1;
0?
07
04
0$
#480000
0!
00
09
#500000
1!
10
19
1@
0B
1E
0C
1>
0;
06
18
05
13
0%
1#
#520000
0!
00
09
#540000
1!
10
19
0@
1A
0D
1C
0>
1;
1?
17
08
14
03
1$
0#
#560000
0!
00
09
#580000
1!
10
19
1@
0A
1B
0E
1D
0C
1>
0?
16
07
18
15
04
13
1%
0$
1#
#600000
0!
00
09
#620000
1!
10
19
1A
0B
1E
0D
1?
06
17
05
14
0%
1$
#640000
0!
00
09
#660000
1!
10
19
1B
0E
0;
16
15
1%
#680000
0!
00
09
#700000
1!
10
19
0@
1C
0>
08
03
0#
#720000
0!
00
09
#740000
1!
10
19
0A
1D
1;
0?
07
04
0$
#760000
0!
00
09
#780000
1!
10
19
1@
0B
1E
0C
1>
0;
06
18
05
13
0%
1#
#800000
0!
00
09
#820000
1!
10
19
0@
1A
0D
1C
0>
1;
1?
17
08
14
03
1$
0#
#840000
0!
00
09
#860000
1!
10
19
1@
0A
1B
0E
1D
0C
1>
0?
16
07
18
15
04
13
1%
0$
1#
#880000
0!
00
09
#900000
1!
10
19
1A
0B
1E
0D
1?
06
17
05
14
0%
1$
#920000
0!
00
09
#940000
1!
10
19
1B
0E
0;
16
15
1%
#960000
0!
00
09
#980000
1!
10
19
0@
1C
0>
08
03
0#
