rtl/simulation/qsim/Tetris.msim.vcd
$comment
	File created using the following command:
		vcd file Tetris.msim.vcd -direction
$end
$date
	Sat Jun 09 17:26:48 2018
$end
$version
	ModelSim Version 10.5b
$end
$timescale
	1ps
$end

$scope module clock_div_vhd_vec_tst $end
$var wire 1 ! clock $end
$var wire 1 " clock_half $end
$var wire 1 # clock_hz $end

$scope module i1 $end
$var wire 1 $ gnd $end
$var wire 1 % vcc $end
$var wire 1 & unknown $end
$var wire 1 ' devoe $end
$var wire 1 ( devclrn $end
$var wire 1 ) devpor $end
$var wire 1 * ww_devoe $end
$var wire 1 + ww_devclrn $end
$var wire 1 , ww_devpor $end
$var wire 1 - ww_clock $end
$var wire 1 . ww_clock_hz $end
$var wire 1 / ww_clock_half $end
$var wire 1 0 \clock_hz~output_o\ $end
$var wire 1 1 \clock_half~output_o\ $end
$var wire 1 2 \clock~input_o\ $end
$var wire 1 3 \Add0~81_sumout\ $end
$var wire 1 4 \count~1_combout\ $end
$var wire 1 5 \Add0~82\ $end
$var wire 1 6 \Add0~53_sumout\ $end
$var wire 1 7 \Add0~54\ $end
$var wire 1 8 \Add0~9_sumout\ $end
$var wire 1 9 \Add0~10\ $end
$var wire 1 : \Add0~13_sumout\ $end
$var wire 1 ; \Add0~14\ $end
$var wire 1 < \Add0~17_sumout\ $end
$var wire 1 = \Add0~18\ $end
$var wire 1 > \Add0~21_sumout\ $end
$var wire 1 ? \Add0~22\ $end
$var wire 1 @ \Add0~85_sumout\ $end
$var wire 1 A \Add0~86\ $end
$var wire 1 B \Add0~25_sumout\ $end
$var wire 1 C \Add0~26\ $end
$var wire 1 D \Add0~49_sumout\ $end
$var wire 1 E \Add0~50\ $end
$var wire 1 F \Add0~29_sumout\ $end
$var wire 1 G \Add0~30\ $end
$var wire 1 H \Add0~1_sumout\ $end
$var wire 1 I \Add0~2\ $end
$var wire 1 J \Add0~89_sumout\ $end
$var wire 1 K \Add0~90\ $end
$var wire 1 L \Add0~93_sumout\ $end
$var wire 1 M \Add0~94\ $end
$var wire 1 N \Add0~97_sumout\ $end
$var wire 1 O \Add0~98\ $end
$var wire 1 P \Add0~101_sumout\ $end
$var wire 1 Q \Add0~102\ $end
$var wire 1 R \Add0~5_sumout\ $end
$var wire 1 S \Equal0~0_combout\ $end
$var wire 1 T \Equal0~1_combout\ $end
$var wire 1 U \Add0~6\ $end
$var wire 1 V \Add0~105_sumout\ $end
$var wire 1 W \Add0~106\ $end
$var wire 1 X \Add0~65_sumout\ $end
$var wire 1 Y \Add0~66\ $end
$var wire 1 Z \Add0~109_sumout\ $end
$var wire 1 [ \Add0~110\ $end
$var wire 1 \ \Add0~113_sumout\ $end
$var wire 1 ] \Add0~114\ $end
$var wire 1 ^ \Add0~117_sumout\ $end
$var wire 1 _ \Add0~118\ $end
$var wire 1 ` \Add0~121_sumout\ $end
$var wire 1 a \Add0~122\ $end
$var wire 1 b \Add0~125_sumout\ $end
$var wire 1 c \Add0~126\ $end
$var wire 1 d \Add0~69_sumout\ $end
$var wire 1 e \Add0~70\ $end
$var wire 1 f \Add0~57_sumout\ $end
$var wire 1 g \Add0~58\ $end
$var wire 1 h \Add0~73_sumout\ $end
$var wire 1 i \Add0~74\ $end
$var wire 1 j \Add0~77_sumout\ $end
$var wire 1 k \Add0~78\ $end
$var wire 1 l \Add0~33_sumout\ $end
$var wire 1 m \Add0~34\ $end
$var wire 1 n \Add0~37_sumout\ $end
$var wire 1 o \Add0~38\ $end
$var wire 1 p \Add0~41_sumout\ $end
$var wire 1 q \Add0~42\ $end
$var wire 1 r \Add0~45_sumout\ $end
$var wire 1 s \Equal0~2_combout\ $end
$var wire 1 t \Add0~46\ $end
$var wire 1 u \Add0~61_sumout\ $end
$var wire 1 v \count~0_combout\ $end
$var wire 1 w \Equal0~3_combout\ $end
$var wire 1 x \Equal0~4_combout\ $end
$var wire 1 y \Equal0~5_combout\ $end
$var wire 1 z \Equal0~6_combout\ $end
$var wire 1 { \temp~q\ $end
$var wire 1 | \Add1~81_sumout\ $end
$var wire 1 } \count2~1_combout\ $end
$var wire 1 ~ \Add1~82\ $end
$var wire 1 !! \Add1~69_sumout\ $end
$var wire 1 "! \Add1~70\ $end
$var wire 1 #! \Add1~65_sumout\ $end
$var wire 1 $! \Add1~66\ $end
$var wire 1 %! \Add1~9_sumout\ $end
$var wire 1 &! \Add1~10\ $end
$var wire 1 '! \Add1~77_sumout\ $end
$var wire 1 (! \Add1~78\ $end
$var wire 1 )! \Add1~85_sumout\ $end
$var wire 1 *! \Add1~86\ $end
$var wire 1 +! \Add1~37_sumout\ $end
$var wire 1 ,! \Add1~38\ $end
$var wire 1 -! \Add1~41_sumout\ $end
$var wire 1 .! \Add1~42\ $end
$var wire 1 /! \Add1~45_sumout\ $end
$var wire 1 0! \Add1~46\ $end
$var wire 1 1! \Add1~49_sumout\ $end
$var wire 1 2! \Add1~50\ $end
$var wire 1 3! \Add1~89_sumout\ $end
$var wire 1 4! \Add1~90\ $end
$var wire 1 5! \Add1~93_sumout\ $end
$var wire 1 6! \Add1~94\ $end
$var wire 1 7! \Add1~97_sumout\ $end
$var wire 1 8! \Add1~98\ $end
$var wire 1 9! \Add1~101_sumout\ $end
$var wire 1 :! \Add1~102\ $end
$var wire 1 ;! \Add1~73_sumout\ $end
$var wire 1 <! \Add1~74\ $end
$var wire 1 =! \Add1~105_sumout\ $end
$var wire 1 >! \Add1~106\ $end
$var wire 1 ?! \Add1~33_sumout\ $end
$var wire 1 @! \Add1~34\ $end
$var wire 1 A! \Add1~109_sumout\ $end
$var wire 1 B! \Add1~110\ $end
$var wire 1 C! \Add1~113_sumout\ $end
$var wire 1 D! \Add1~114\ $end
$var wire 1 E! \Add1~117_sumout\ $end
$var wire 1 F! \Add1~118\ $end
$var wire 1 G! \Add1~121_sumout\ $end
$var wire 1 H! \Add1~122\ $end
$var wire 1 I! \Add1~125_sumout\ $end
$var wire 1 J! \Add1~126\ $end
$var wire 1 K! \Add1~53_sumout\ $end
$var wire 1 L! \Add1~54\ $end
$var wire 1 M! \Add1~57_sumout\ $end
$var wire 1 N! \Add1~58\ $end
$var wire 1 O! \Add1~13_sumout\ $end
$var wire 1 P! \Add1~14\ $end
$var wire 1 Q! \Add1~17_sumout\ $end
$var wire 1 R! \Add1~18\ $end
$var wire 1 S! \Add1~21_sumout\ $end
$var wire 1 T! \Add1~22\ $end
$var wire 1 U! \Add1~25_sumout\ $end
$var wire 1 V! \Add1~26\ $end
$var wire 1 W! \Add1~29_sumout\ $end
$var wire 1 X! \Add1~30\ $end
$var wire 1 Y! \Add1~1_sumout\ $end
$var wire 1 Z! \Add1~2\ $end
$var wire 1 [! \Add1~5_sumout\ $end
$var wire 1 \! \Equal1~0_combout\ $end
$var wire 1 ]! \Equal1~1_combout\ $end
$var wire 1 ^! \Equal1~2_combout\ $end
$var wire 1 _! \Add1~6\ $end
$var wire 1 `! \Add1~61_sumout\ $end
$var wire 1 a! \count2~0_combout\ $end
$var wire 1 b! \Equal1~3_combout\ $end
$var wire 1 c! \Equal1~4_combout\ $end
$var wire 1 d! \Equal1~5_combout\ $end
$var wire 1 e! \Equal1~6_combout\ $end
$var wire 1 f! \temp2~q\ $end
$var wire 1 g! count [31] $end
$var wire 1 h! count [30] $end
$var wire 1 i! count [29] $end
$var wire 1 j! count [28] $end
$var wire 1 k! count [27] $end
$var wire 1 l! count [26] $end
$var wire 1 m! count [25] $end
$var wire 1 n! count [24] $end
$var wire 1 o! count [23] $end
$var wire 1 p! count [22] $end
$var wire 1 q! count [21] $end
$var wire 1 r! count [20] $end
$var wire 1 s! count [19] $end
$var wire 1 t! count [18] $end
$var wire 1 u! count [17] $end
$var wire 1 v! count [16] $end
$var wire 1 w! count [15] $end
$var wire 1 x! count [14] $end
$var wire 1 y! count [13] $end
$var wire 1 z! count [12] $end
$var wire 1 {! count [11] $end
$var wire 1 |! count [10] $end
$var wire 1 }! count [9] $end
$var wire 1 ~! count [8] $end
$var wire 1 !" count [7] $end
$var wire 1 "" count [6] $end
$var wire 1 #" count [5] $end
$var wire 1 $" count [4] $end
$var wire 1 %" count [3] $end
$var wire 1 &" count [2] $end
$var wire 1 '" count [1] $end
$var wire 1 (" count [0] $end
$var wire 1 )" count2 [31] $end
$var wire 1 *" count2 [30] $end
$var wire 1 +" count2 [29] $end
$var wire 1 ," count2 [28] $end
$var wire 1 -" count2 [27] $end
$var wire 1 ." count2 [26] $end
$var wire 1 /" count2 [25] $end
$var wire 1 0" count2 [24] $end
$var wire 1 1" count2 [23] $end
$var wire 1 2" count2 [22] $end
$var wire 1 3" count2 [21] $end
$var wire 1 4" count2 [20] $end
$var wire 1 5" count2 [19] $end
$var wire 1 6" count2 [18] $end
$var wire 1 7" count2 [17] $end
$var wire 1 8" count2 [16] $end
$var wire 1 9" count2 [15] $end
$var wire 1 :" count2 [14] $end
$var wire 1 ;" count2 [13] $end
$var wire 1 <" count2 [12] $end
$var wire 1 =" count2 [11] $end
$var wire 1 >" count2 [10] $end
$var wire 1 ?" count2 [9] $end
$var wire 1 @" count2 [8] $end
$var wire 1 A" count2 [7] $end
$var wire 1 B" count2 [6] $end
$var wire 1 C" count2 [5] $end
$var wire 1 D" count2 [4] $end
$var wire 1 E" count2 [3] $end
$var wire 1 F" count2 [2] $end
$var wire 1 G" count2 [1] $end
$var wire 1 H" count2 [0] $end
$var wire 1 I" \ALT_INV_Add1~81_sumout\ $end
$var wire 1 J" \ALT_INV_Add1~61_sumout\ $end
$var wire 1 K" \ALT_INV_Add0~81_sumout\ $end
$var wire 1 L" \ALT_INV_Add0~61_sumout\ $end
$var wire 1 M" ALT_INV_count2 [31] $end
$var wire 1 N" ALT_INV_count2 [30] $end
$var wire 1 O" ALT_INV_count2 [29] $end
$var wire 1 P" ALT_INV_count2 [28] $end
$var wire 1 Q" ALT_INV_count2 [27] $end
$var wire 1 R" ALT_INV_count2 [26] $end
$var wire 1 S" ALT_INV_count2 [25] $end
$var wire 1 T" ALT_INV_count2 [24] $end
$var wire 1 U" ALT_INV_count2 [23] $end
$var wire 1 V" ALT_INV_count2 [22] $end
$var wire 1 W" ALT_INV_count2 [21] $end
$var wire 1 X" ALT_INV_count2 [20] $end
$var wire 1 Y" ALT_INV_count2 [19] $end
$var wire 1 Z" ALT_INV_count2 [18] $end
$var wire 1 [" ALT_INV_count2 [17] $end
$var wire 1 \" ALT_INV_count2 [16] $end
$var wire 1 ]" ALT_INV_count2 [15] $end
$var wire 1 ^" ALT_INV_count2 [14] $end
$var wire 1 _" ALT_INV_count2 [13] $end
$var wire 1 `" ALT_INV_count2 [12] $end
$var wire 1 a" ALT_INV_count2 [11] $end
$var wire 1 b" ALT_INV_count2 [10] $end
$var wire 1 c" ALT_INV_count2 [9] $end
$var wire 1 d" ALT_INV_count2 [8] $end
$var wire 1 e" ALT_INV_count2 [7] $end
$var wire 1 f" ALT_INV_count2 [6] $end
$var wire 1 g" ALT_INV_count2 [5] $end
$var wire 1 h" ALT_INV_count2 [4] $end
$var wire 1 i" ALT_INV_count2 [3] $end
$var wire 1 j" ALT_INV_count2 [2] $end
$var wire 1 k" ALT_INV_count2 [1] $end
$var wire 1 l" ALT_INV_count2 [0] $end
$var wire 1 m" ALT_INV_count [31] $end
$var wire 1 n" ALT_INV_count [30] $end
$var wire 1 o" ALT_INV_count [29] $end
$var wire 1 p" ALT_INV_count [28] $end
$var wire 1 q" ALT_INV_count [27] $end
$var wire 1 r" ALT_INV_count [26] $end
$var wire 1 s" ALT_INV_count [25] $end
$var wire 1 t" ALT_INV_count [24] $end
$var wire 1 u" ALT_INV_count [23] $end
$var wire 1 v" ALT_INV_count [22] $end
$var wire 1 w" ALT_INV_count [21] $end
$var wire 1 x" ALT_INV_count [20] $end
$var wire 1 y" ALT_INV_count [19] $end
$var wire 1 z" ALT_INV_count [18] $end
$var wire 1 {" ALT_INV_count [17] $end
$var wire 1 |" ALT_INV_count [16] $end
$var wire 1 }" ALT_INV_count [15] $end
$var wire 1 ~" ALT_INV_count [14] $end
$var wire 1 !# ALT_INV_count [13] $end
$var wire 1 "# ALT_INV_count [12] $end
$var wire 1 ## ALT_INV_count [11] $end
$var wire 1 $# ALT_INV_count [10] $end
$var wire 1 %# ALT_INV_count [9] $end
$var wire 1 &# ALT_INV_count [8] $end
$var wire 1 '# ALT_INV_count [7] $end
$var wire 1 (# ALT_INV_count [6] $end
$var wire 1 )# ALT_INV_count [5] $end
$var wire 1 *# ALT_INV_count [4] $end
$var wire 1 +# ALT_INV_count [3] $end
$var wire 1 ,# ALT_INV_count [2] $end
$var wire 1 -# ALT_INV_count [1] $end
$var wire 1 .# ALT_INV_count [0] $end
$var wire 1 /# \ALT_INV_Equal1~6_combout\ $end
$var wire 1 0# \ALT_INV_Equal1~5_combout\ $end
$var wire 1 1# \ALT_INV_Equal1~4_combout\ $end
$var wire 1 2# \ALT_INV_Equal1~3_combout\ $end
$var wire 1 3# \ALT_INV_Equal1~2_combout\ $end
$var wire 1 4# \ALT_INV_Equal1~1_combout\ $end
$var wire 1 5# \ALT_INV_Equal1~0_combout\ $end
$var wire 1 6# \ALT_INV_Equal0~6_combout\ $end
$var wire 1 7# \ALT_INV_Equal0~5_combout\ $end
$var wire 1 8# \ALT_INV_Equal0~4_combout\ $end
$var wire 1 9# \ALT_INV_Equal0~3_combout\ $end
$var wire 1 :# \ALT_INV_Equal0~2_combout\ $end
$var wire 1 ;# \ALT_INV_Equal0~1_combout\ $end
$var wire 1 <# \ALT_INV_Equal0~0_combout\ $end
$upscope $end
$upscope $end
$enddefinitions $end
#0
$dumpvars
0!
0"
0#
0$
1%
x&
1'
1(
1)
1*
1+
1,
0-
0.
0/
00
01
02
03
14
15
06
17
08
19
0:
1;
0<
1=
0>
1?
0@
1A
0B
1C
0D
1E
0F
1G
0H
1I
0J
1K
0L
1M
0N
1O
0P
1Q
0R
1S
1T
1U
0V
1W
0X
1Y
0Z
1[
0\
1]
0^
1_
0`
1a
0b
1c
0d
1e
0f
1g
0h
1i
0j
1k
0l
1m
0n
1o
0p
1q
0r
1s
1t
1u
0v
0w
0x
1y
0z
0{
0|
1}
1~
0!!
1"!
0#!
1$!
0%!
1&!
0'!
1(!
0)!
1*!
0+!
1,!
0-!
1.!
0/!
10!
01!
12!
03!
14!
05!
16!
07!
18!
09!
1:!
0;!
1<!
0=!
1>!
0?!
1@!
0A!
1B!
0C!
1D!
0E!
1F!
0G!
1H!
0I!
1J!
0K!
1L!
0M!
1N!
0O!
1P!
0Q!
1R!
0S!
1T!
0U!
1V!
0W!
1X!
0Y!
1Z!
0[!
1\!
1]!
1^!
1_!
1`!
0a!
0b!
0c!
1d!
0e!
0f!
1I"
0J"
1K"
0L"
1/#
00#
11#
12#
03#
04#
05#
16#
07#
18#
19#
0:#
0;#
0<#
0g!
0h!
0i!
0j!
0k!
0l!
0m!
0n!
0o!
0p!
0q!
0r!
0s!
0t!
0u!
0v!
0w!
0x!
0y!
0z!
0{!
0|!
0}!
0~!
0!"
0""
0#"
0$"
0%"
0&"
0'"
0("
0)"
0*"
0+"
0,"
0-"
0."
0/"
00"
01"
02"
03"
04"
05"
06"
07"
08"
09"
0:"
0;"
0<"
0="
0>"
0?"
0@"
0A"
0B"
0C"
0D"
0E"
0F"
0G"
0H"
1M"
1N"
1O"
1P"
1Q"
1R"
1S"
1T"
1U"
1V"
1W"
1X"
1Y"
1Z"
1["
1\"
1]"
1^"
1_"
1`"
1a"
1b"
1c"
1d"
1e"
1f"
1g"
1h"
1i"
1j"
1k"
1l"
1m"
1n"
1o"
1p"
1q"
1r"
1s"
1t"
1u"
1v"
1w"
1x"
1y"
1z"
1{"
1|"
1}"
1~"
1!#
1"#
1##
1$#
1%#
1&#
1'#
1(#
1)#
1*#
1+#
1,#
1-#
1.#
$end
#100
1!
1-
12
1("
1H"
0l"
0.#
13
05
1x
1|
0~
1c!
01#
0I"
08#
0K"
1!!
0"!
16
07
04
0}
18
09
1#!
0$!
1%!
0&!
1:
0;
1<
0=
1'!
0(!
1)!
0*!
1>
0?
1@
0A
1+!
0,!
1-!
0.!
1B
0C
1D
0E
1/!
00!
11!
02!
1F
0G
1H
0I
13!
04!
15!
06!
1J
0K
1L
0M
17!
08!
19!
0:!
1N
0O
1P
0Q
1;!
0<!
1=!
0>!
1R
0U
1V
0W
1?!
0@!
1A!
0B!
1X
0Y
1Z
0[
1C!
0D!
1E!
0F!
1\
0]
1^
0_
1G!
0H!
1I!
0J!
1`
0a
1b
0c
1K!
0L!
1M!
0N!
1d
0e
1f
0g
1O!
0P!
1Q!
0R!
1h
0i
1j
0k
1S!
0T!
1U!
0V!
1l
0m
1n
0o
1W!
0X!
1Y!
0Z!
1p
0q
1r
0t
1[!
0_!
0`!
0u
1L"
1J"
1a!
1v
#200
0!
0-
02
#300
1!
1-
12
0("
1'"
1&"
1%"
1$"
1#"
1""
1!"
1~!
1}!
1|!
1{!
1z!
1y!
1x!
1w!
1v!
1u!
1t!
1s!
1r!
1q!
1p!
1o!
1n!
1m!
1l!
1k!
1j!
1i!
1h!
1g!
0H"
1G"
1F"
1E"
1D"
1C"
1B"
1A"
1@"
1?"
1>"
1="
1<"
1;"
1:"
19"
18"
17"
16"
15"
14"
13"
12"
11"
10"
1/"
1."
1-"
1,"
1+"
1*"
1)"
0M"
0N"
0O"
0P"
0Q"
0R"
0S"
0T"
0U"
0V"
0W"
0X"
0Y"
0Z"
0["
0\"
0]"
0^"
0_"
0`"
0a"
0b"
0c"
0d"
0e"
0f"
0g"
0h"
0i"
0j"
0k"
1l"
0m"
0n"
0o"
0p"
0q"
0r"
0s"
0t"
0u"
0v"
0w"
0x"
0y"
0z"
0{"
0|"
0}"
0~"
0!#
0"#
0##
0$#
0%#
0&#
0'#
0(#
0)#
0*#
0+#
0,#
0-#
1.#
03
15
06
17
08
19
0:
1;
0<
1=
0>
1?
0@
1A
0B
1C
0D
1E
0F
1G
0T
0H
1I
0J
1K
0L
1M
0N
1O
0P
1Q
0x
0R
1U
0S
0V
1W
0X
1Y
0Z
1[
0\
1]
0^
1_
0`
1a
0b
1c
0y
0d
1e
0f
1g
0h
1i
0j
1k
0l
1m
0n
1o
0p
1q
0r
1t
0s
1u
0|
1~
0!!
1"!
0#!
1$!
0%!
1&!
0'!
1(!
0)!
1*!
0+!
1,!
0-!
1.!
0/!
10!
01!
12!
03!
14!
05!
16!
07!
18!
09!
1:!
0c!
0;!
1<!
0=!
1>!
0?!
1@!
0A!
1B!
0C!
1D!
0E!
1F!
0G!
1H!
0I!
1J!
0d!
0K!
1L!
0^!
0M!
1N!
0O!
1P!
0Q!
1R!
0S!
1T!
0U!
1V!
0W!
1X!
0]!
0Y!
1Z!
0[!
1_!
0\!
1`!
0J"
15#
14#
13#
10#
11#
1I"
0L"
1:#
17#
1<#
18#
1;#
1K"
0`!
1[!
1Y!
1W!
1U!
1S!
1Q!
1O!
1M!
1K!
1I!
1G!
1E!
1C!
1A!
1?!
1=!
1;!
19!
17!
15!
13!
11!
1/!
1-!
1+!
1)!
1'!
1%!
1#!
1!!
0u
1r
1p
1n
1l
1j
1h
1f
1d
1b
1`
1^
1\
1Z
1X
1V
1R
1P
1N
1L
1J
1H
1F
1D
1B
1@
1>
1<
1:
18
16
14
0v
1}
0a!
1L"
1J"
1a!
1v
#400
0!
0-
02
#500
1!
1-
12
1("
1H"
0l"
0.#
13
05
1|
0~
0I"
0K"
0!!
06
04
0}
#600
0!
0-
02
#700
1!
1-
12
0("
0'"
0H"
0G"
1k"
1l"
1-#
1.#
03
15
16
07
0|
1~
1!!
0"!
1I"
1K"
0#!
0!!
1"!
08
06
17
14
1}
18
1#!
#800
0!
0-
02
#900
1!
1-
12
1("
1H"
0l"
0.#
13
05
1|
0~
0I"
0K"
1!!
0"!
16
07
04
0}
08
0#!
#1000
0!
0-
02
#1100
1!
1-
12
0("
1'"
0&"
0H"
1G"
0F"
1j"
0k"
1l"
1,#
0-#
1.#
03
15
06
17
18
09
0|
1~
0!!
1"!
1#!
0$!
1I"
1K"
0%!
0#!
1$!
1!!
0:
08
19
16
14
1}
1:
1%!
#1200
0!
0-
02
#1300
1!
1-
12
1("
1H"
0l"
0.#
13
05
1|
0~
0I"
0K"
0!!
06
04
0}
#1400
0!
0-
02
#1500
1!
1-
12
0("
0'"
0H"
0G"
1k"
1l"
1-#
1.#
03
15
16
07
0|
1~
1!!
0"!
1I"
1K"
1#!
0$!
0!!
1"!
18
09
06
17
14
1}
08
19
0:
0#!
1$!
0%!
1%!
1:
#1600
0!
0-
02
#1700
1!
1-
12
1("
1H"
0l"
0.#
13
05
1|
0~
0I"
0K"
1!!
0"!
16
07
04
0}
18
09
1#!
0$!
0%!
0:
#1800
0!
0-
02
#1900
1!
1-
12
0("
1'"
1&"
0%"
0H"
1G"
1F"
0E"
1i"
0j"
0k"
1l"
1+#
0,#
0-#
1.#
03
15
06
17
08
19
1:
0;
0|
1~
0!!
1"!
0#!
1$!
1%!
0&!
1I"
1K"
0'!
0%!
1&!
1#!
1!!
0<
0:
1;
18
16
14
1}
1<
1'!
#2000
0!
0-
02
#2100
1!
1-
12
1("
1H"
0l"
0.#
13
05
1|
0~
0I"
0K"
0!!
06
04
0}
#2200
0!
0-
02
#2300
1!
1-
12
0("
0'"
0H"
0G"
1k"
1l"
1-#
1.#
03
15
16
07
0|
1~
1!!
0"!
1I"
1K"
0#!
0!!
1"!
08
06
17
14
1}
18
1#!
#2400
0!
0-
02
#2500
1!
1-
12
1("
1H"
0l"
0.#
13
05
1|
0~
0I"
0K"
1!!
0"!
16
07
04
0}
08
0#!
#2600
0!
0-
02
#2700
1!
1-
12
0("
1'"
0&"
0H"
1G"
0F"
1j"
0k"
1l"
1,#
0-#
1.#
03
15
06
17
18
09
0|
1~
0!!
1"!
1#!
0$!
1I"
1K"
1%!
0&!
0#!
1$!
1!!
1:
0;
08
19
16
14
1}
0:
1;
0<
0%!
1&!
0'!
1'!
1<
#2800
0!
0-
02
#2900
1!
1-
12
1("
1H"
0l"
0.#
13
05
1|
0~
0I"
0K"
0!!
06
04
0}
#3000
0!
0-
02
#3100
1!
1-
12
0("
0'"
0H"
0G"
1k"
1l"
1-#
1.#
03
15
16
07
0|
1~
1!!
0"!
1I"
1K"
1#!
0$!
0!!
1"!
18
09
06
17
14
1}
08
19
1:
0;
0#!
1$!
1%!
0&!
0'!
0%!
1&!
0<
0:
1;
1<
1'!
#3200
0!
0-
02
#3300
1!
1-
12
1("
1H"
0l"
0.#
13
05
1|
0~
0I"
0K"
1!!
0"!
16
07
04
0}
18
09
1#!
0$!
1%!
0&!
1:
0;
0<
0'!
#3400
0!
0-
02
#3500
1!
1-
12
0("
1'"
1&"
1%"
0$"
0H"
1G"
1F"
1E"
0D"
1h"
0i"
0j"
0k"
1l"
1*#
0+#
0,#
0-#
1.#
03
15
06
17
08
19
0:
1;
1<
0=
0|
1~
0!!
1"!
0#!
1$!
0%!
1&!
1'!
0(!
1I"
1K"
0)!
0'!
1(!
1%!
1#!
1!!
0>
0<
1=
1:
18
16
14
1}
1>
1)!
#3600
0!
0-
02
#3700
1!
1-
12
1("
1H"
0l"
0.#
13
05
1|
0~
0I"
0K"
0!!
06
04
0}
#3800
0!
0-
02
#3900
1!
1-
12
0("
0'"
0H"
0G"
1k"
1l"
1-#
1.#
03
15
16
07
0|
1~
1!!
0"!
1I"
1K"
0#!
0!!
1"!
08
06
17
14
1}
18
1#!
#4000
0!
0-
02
#4100
1!
1-
12
1("
1H"
0l"
0.#
13
05
1|
0~
0I"
0K"
1!!
0"!
16
07
04
0}
08
0#!
#4200
0!
0-
02
#4300
1!
1-
12
0("
1'"
0&"
0H"
1G"
0F"
1j"
0k"
1l"
1,#
0-#
1.#
03
15
06
17
18
09
0|
1~
0!!
1"!
1#!
0$!
1I"
1K"
0%!
0#!
1$!
1!!
0:
08
19
16
14
1}
1:
1%!
#4400
0!
0-
02
#4500
1!
1-
12
1("
1H"
0l"
0.#
13
05
1|
0~
0I"
0K"
0!!
06
04
0}
#4600
0!
0-
02
#4700
1!
1-
12
0("
0'"
0H"
0G"
1k"
1l"
1-#
1.#
03
15
16
07
0|
1~
1!!
0"!
1I"
1K"
1#!
0$!
0!!
1"!
18
09
06
17
14
1}
08
19
0:
0#!
1$!
0%!
1%!
1:
#4800
0!
0-
02
#4900
1!
1-
12
1("
1H"
0l"
0.#
13
05
1|
0~
0I"
0K"
1!!
0"!
16
07
04
0}
18
09
1#!
0$!
0%!
0:
#5000
0!
0-
02
#5100
1!
1-
12
0("
1'"
1&"
0%"
0H"
1G"
1F"
0E"
1i"
0j"
0k"
1l"
1+#
0,#
0-#
1.#
03
15
06
17
08
19
1:
0;
0|
1~
0!!
1"!
0#!
1$!
1%!
0&!
1I"
1K"
1'!
0(!
0%!
1&!
1#!
1!!
1<
0=
0:
1;
18
16
14
1}
0<
1=
0>
0'!
1(!
0)!
1)!
1>
#5200
0!
0-
02
#5300
1!
1-
12
1("
1H"
0l"
0.#
13
05
1|
0~
0I"
0K"
0!!
06
04
0}
#5400
0!
0-
02
#5500
1!
1-
12
0("
0'"
0H"
0G"
1k"
1l"
1-#
1.#
03
15
16
07
0|
1~
1!!
0"!
1I"
1K"
0#!
0!!
1"!
08
06
17
14
1}
18
1#!
#5600
0!
0-
02
#5700
1!
1-
12
1("
1H"
0l"
0.#
13
05
1|
0~
0I"
0K"
1!!
0"!
16
07
04
0}
08
0#!
#5800
0!
0-
02
#5900
1!
1-
12
0("
1'"
0&"
0H"
1G"
0F"
1j"
0k"
1l"
1,#
0-#
1.#
03
15
06
17
18
09
0|
1~
0!!
1"!
1#!
0$!
1I"
1K"
1%!
0&!
0#!
1$!
1!!
1:
0;
08
19
16
14
1}
0:
1;
1<
0=
0%!
1&!
1'!
0(!
0)!
0'!
1(!
0>
0<
1=
1>
1)!
#6000
0!
0-
02
#6100
1!
1-
12
1("
1H"
0l"
0.#
13
05
1|
0~
0I"
0K"
0!!
06
04
0}
#6200
0!
0-
02
#6300
1!
1-
12
0("
0'"
0H"
0G"
1k"
1l"
1-#
1.#
03
15
16
07
0|
1~
1!!
0"!
1I"
1K"
1#!
0$!
0!!
1"!
18
09
06
17
14
1}
08
19
1:
0;
0#!
1$!
1%!
0&!
1'!
0(!
0%!
1&!
1<
0=
0:
1;
0<
1=
0>
0'!
1(!
0)!
1)!
1>
#6400
0!
0-
02
#6500
1!
1-
12
1("
1H"
0l"
0.#
13
05
1|
0~
0I"
0K"
1!!
0"!
16
07
04
0}
18
09
1#!
0$!
1%!
0&!
1:
0;
1<
0=
1'!
0(!
0)!
0>
#6600
0!
0-
02
#6700
1!
1-
12
0("
1'"
1&"
1%"
1$"
0#"
0H"
1G"
1F"
1E"
1D"
0C"
1g"
0h"
0i"
0j"
0k"
1l"
1)#
0*#
0+#
0,#
0-#
1.#
03
15
06
17
08
19
0:
1;
0<
1=
1>
0?
0|
1~
0!!
1"!
0#!
1$!
0%!
1&!
0'!
1(!
1)!
0*!
1I"
1K"
0+!
0)!
1*!
1'!
1%!
1#!
1!!
0@
0>
1?
1<
1:
18
16
14
1}
1@
1+!
#6800
0!
0-
02
#6900
1!
1-
12
1("
1H"
0l"
0.#
13
05
1|
0~
0I"
0K"
0!!
06
04
0}
#7000
0!
0-
02
#7100
1!
1-
12
0("
0'"
0H"
0G"
1k"
1l"
1-#
1.#
03
15
16
07
0|
1~
1!!
0"!
1I"
1K"
0#!
0!!
1"!
08
06
17
14
1}
18
1#!
#7200
0!
0-
02
#7300
1!
1-
12
1("
1H"
0l"
0.#
13
05
1|
0~
0I"
0K"
1!!
0"!
16
07
04
0}
08
0#!
#7400
0!
0-
02
#7500
1!
1-
12
0("
1'"
0&"
0H"
1G"
0F"
1j"
0k"
1l"
1,#
0-#
1.#
03
15
06
17
18
09
0|
1~
0!!
1"!
1#!
0$!
1I"
1K"
0%!
0#!
1$!
1!!
0:
08
19
16
14
1}
1:
1%!
#7600
0!
0-
02
#7700
1!
1-
12
1("
1H"
0l"
0.#
13
05
1|
0~
0I"
0K"
0!!
06
04
0}
#7800
0!
0-
02
#7900
1!
1-
12
0("
0'"
0H"
0G"
1k"
1l"
1-#
1.#
03
15
16
07
0|
1~
1!!
0"!
1I"
1K"
1#!
0$!
0!!
1"!
18
09
06
17
14
1}
08
19
0:
0#!
1$!
0%!
1%!
1:
#8000
0!
0-
02
#8100
1!
1-
12
1("
1H"
0l"
0.#
13
05
1|
0~
0I"
0K"
1!!
0"!
16
07
04
0}
18
09
1#!
0$!
0%!
0:
#8200
0!
0-
02
#8300
1!
1-
12
0("
1'"
1&"
0%"
0H"
1G"
1F"
0E"
1i"
0j"
0k"
1l"
1+#
0,#
0-#
1.#
03
15
06
17
08
19
1:
0;
0|
1~
0!!
1"!
0#!
1$!
1%!
0&!
1I"
1K"
0'!
0%!
1&!
1#!
1!!
0<
0:
1;
18
16
14
1}
1<
1'!
#8400
0!
0-
02
#8500
1!
1-
12
1("
1H"
0l"
0.#
13
05
1|
0~
0I"
0K"
0!!
06
04
0}
#8600
0!
0-
02
#8700
1!
1-
12
0("
0'"
0H"
0G"
1k"
1l"
1-#
1.#
03
15
16
07
0|
1~
1!!
0"!
1I"
1K"
0#!
0!!
1"!
08
06
17
14
1}
18
1#!
#8800
0!
0-
02
#8900
1!
1-
12
1("
1H"
0l"
0.#
13
05
1|
0~
0I"
0K"
1!!
0"!
16
07
04
0}
08
0#!
#9000
0!
0-
02
